\relax 
\@writefile{toc}{\contentsline {subsection}{\numberline {0.1}Appendix -- The Sex Variable}{1}{}\protected@file@percent }
\@writefile{toc}{\contentsline {subsubsection}{\numberline {0.1.1}Sex in BRFSS by Year}{1}{}\protected@file@percent }
\@writefile{toc}{\contentsline {paragraph}{2014 and 2015}{1}{}\protected@file@percent }
\@writefile{toc}{\contentsline {paragraph}{2016}{1}{}\protected@file@percent }
\@writefile{toc}{\contentsline {paragraph}{2017}{1}{}\protected@file@percent }
\@writefile{toc}{\contentsline {paragraph}{2018}{2}{}\protected@file@percent }
\@writefile{toc}{\contentsline {paragraph}{2019 to 2021}{2}{}\protected@file@percent }
\@writefile{toc}{\contentsline {paragraph}{Sex Variable Names}{3}{}\protected@file@percent }
\@writefile{toc}{\contentsline {subsubsection}{\numberline {0.1.2}Interpretation}{3}{}\protected@file@percent }
\newlabel{interpretation}{{0.1.2}{3}}
\@writefile{lof}{\contentsline {figure}{\numberline {1}{\ignorespaces Share of trans BRFSS respondents with miscoded sex by year. Note: respondents in 2022 were part of the 2021 survey.}}{4}{}\protected@file@percent }
\newlabel{fig:miscodedbyyear}{{1}{4}}
\gdef \@abspage@last{5}
